{
  "name": "Pwc_sandbox",
  "format": "1.0.0",
  "dependencies": [],
  "content": [
    {
      "relpath": "Sandbox",
      "contentType": "MODELICA",
      "name": "Sandbox",
      "defaultDisabled": false,
      "id": "cc2f721893344da49300671497d4cb99"
    },
    {
      "relpath": "Resources/ExperimentDefinitions",
      "contentType": "EXPERIMENT_DEFINITIONS",
      "defaultDisabled": false,
      "id": "f5fa93f95d2d43ed9ec15377d985b602"
    }
  ],
  "executionOptions": []
}